"id","description"
1,"1-Adiantetea capilli-veneris (p)"
2,"1.0.1-Adiantetalia capilli-veneris (p)"
3,"1.0.1.0.1-Adiantion capilli-veneris (p)"
4,"2-Agropyretea pungentis (p)"
5,"2.0.1-Agropyretalia pungentis (p)"
6,"2.0.1.0.1-Agropyrion pungentis (H)"
7,"3-Agrostietea stoloniferae (H)"
8,"3.0.1-Potentillo anserinae-Polygonetalia avicularis (H)"
9,"3.0.1.0.1-Bromion racemosi (H)"
10,"3.0.1.0.2-Alopecurion utriculati (H)"
11,"3.0.1.0.3-Alopecurion pratensis (H)"
12,"3.0.1.0.4-Loto tenuis-Trifolion fragiferi (H)"
13,"3.0.1.0.5-Mentho longifoliae-Juncion inflexi (H)"
14,"3.0.1.0.6-Potentillion anserinae (H)"
15,"3.0.2-Eleocharitetalia palustris (H)"
16,"3.0.2.0.1-Oenanthion fistulosae (H)"
17,"3.0.2.0.2-Cnidion venosi (H)"
18,"3.0.3-Paspalo distichi-Polypogonetalia semiverticillatae (H)"
19,"3.0.3.0.1-Paspalo distichi-Agrostion semiverticillatae (H)"
20,"4-Alnetea glutinosae (H)"
21,"4.0.1-Salicetalia auritae (H)"
22,"4.0.1.0.1-Salicion cinereae (H)"
23,"4.0.2-Alnetalia glutinosae (H)"
24,"4.0.2.0.1-Alnion glutinosae (H)"
25,"4.0.2.0.2-Sphagno-Alnion glutinosae (H)"
26,"5-Anogrammo leptophyllae-Polypodietea cambrici (p)"
27,"5.0.1-Anomodonto viticulosi-Polypodietalia cambrici (p)"
28,"5.0.1.0.2-Hymenophyllion tunbrigensis (H)"
29,"6-Arrhenatheretea elatioris (p)"
30,"6.0.1-Arrhenatheretalia elatioris (p)"
31,"6.0.1.0.1-Arrhenatherion elatioris (p)"
32,"6.0.1.0.1.2-Colchico autumnalis-Arrhenatherenion elatioris (H)"
33,"6.0.1.0.1.3-Rumici obtusifolii-Arrhenatherenion elatioris (p)"
34,"6.0.1.0.2-Brachypodio rupestris-Centaureion nemoralis (p)"
35,"6.0.1.0.3-Triseto flavescentis-Polygonion bistortae (p)"
36,"6.0.1.0.3.1-Violo sudeticae-Trisetenion flavescentis (p)"
37,"6.0.1.0.3.2-Lathyro linifolii-Trisetenion flavescentis (p)"
38,"6.0.1.0.3.3-Campanulo rhomboidalis-Trisetenion flavescentis (p)"
39,"6.0.2-Trifolio repentis-Phleetalia pratensis (p)"
40,"6.0.2.0.1-Cynosurion cristati (p)"
41,"6.0.2.0.1.4-Cardamino pratensis-Cynosurenion cristati (H)"
42,"6.0.3-Plantaginetalia majoris (p)"
43,"6.0.3.0.1-Lolio perennis-Plantaginion majoris (p)"
44,"6.0.3.0.2-Trifolio fragiferi-Cynodontion dactylonis (H)"
45,"6.0.3.0.3-Poion supinae (p)"
46,"7-Artemisietea vulgaris (p)"
47,"7.0.1-Artemisietalia vulgaris (p)"
48,"7.0.1.0.1-Arction lappae (p)"
49,"7.0.1.0.1.1-Arctienion lappae (p)"
50,"9-Asteretea tripolii (p)"
51,"9.0.1-Glauco maritimae-Puccinellietalia maritimae (H)"
52,"9.0.1.0.1-Puccinellion maritimae (H)"
53,"9.0.1.0.1.1-Puccinellienion maritimae (H)"
54,"9.0.1.0.1.2-Puccinellio maritimae-Spergularienion salinae (H)"
55,"9.0.1.0.2-Armerion maritimae (H)"
56,"9.0.1.0.2.1-Festucenion littoralis (H)"
57,"9.0.1.0.2.2-Frankenio laevis-Armerienion maritimae (H)"
58,"9.0.1.0.2.3-Limonio vulgaris-Plantaginenion maritimae (H)"
59,"9.0.1.0.3-Glauco maritimae-Juncion maritimi (H)"
60,"9.0.2-Crithmo maritimi-Armerietalia maritimae (p)"
61,"9.0.2.0.2-Crithmo maritimi-Armerion maritimae (p)"
62,"9.0.2.0.3-Sileno maritimae-Festucion pruinosae (p)"
63,"10-Betulo carpaticae-Alnetea viridis (p)"
64,"10.0.1-Alnetalia viridis (p)"
65,"10.0.1.0.1-Alnion viridis (p)"
66,"10.0.1.0.2-Salicion helveticae (p)"
67,"10.0.1.0.3-Salicion lapponi-glaucosericeae (H)"
68,"11-Bidentetea tripartitae (H)"
69,"11.0.1-Bidentetalia tripartitae (H)"
70,"11.0.1.0.1-Bidention tripartitae (H)"
71,"11.0.1.0.2-Chenopodion rubri (H)"
72,"12-Cakiletea maritimae (p)"
73,"12.0.1-Cakiletalia integrifoliae (p)"
74,"12.0.1.0.1-Atriplicion littoralis (p)"
75,"13-Calluno vulgaris-Ulicetea minoris (p)"
76,"13.0.1-Ulicetalia minoris (p)"
77,"13.0.1.0.3-Dactylido oceanicae-Ulicion maritimi (p)"
78,"13.0.1.0.4-Ulicion minoris (p)"
79,"13.0.1.0.4.1-Ulici minoris-Ericenion ciliaris (p)"
80,"13.0.1.0.5-Genistion micrantho-anglicae (H)"
81,"15-Caricetea curvulae (p)"
82,"15.0.1-Caricetalia curvulae (p)"
83,"15.0.1.0.5-Nardion strictae (p)"
84,"18-Charetea fragilis (p)"
85,"18.0.1-Nitelletalia flexilis (p)"
86,"18.0.1.0.1-Nitellion flexilis (p)"
87,"18.0.1.0.2-Nitellion syncarpo-tenuissimae (p)"
88,"18.0.2-Charetalia hispidae (p)"
89,"18.0.2.0.1-Charion fragilis (p)"
90,"18.0.2.0.2-Charion vulgaris (p)"
91,"18.0.2.0.3-Charion canescentis (p)"
92,"20-Crataego monogynae-Prunetea spinosae (p)"
93,"20.0.1-Salicetalia arenariae (p)"
94,"20.0.1.0.1-Salicion arenariae (p)"
95,"20.0.1.0.2-Ligustro vulgaris-Hippophaion rhamnoidis (p)"
96,"20.0.2-Prunetalia spinosae (p)"
97,"20.0.2.0.6-Ulici europaei-Rubion ulmifolii (p)"
98,"20.0.2.0.10-Salici cinereae-Rhamnion catharticae (H)"
99,"20.0.2.0.10.1-Hippophaenion fluviatilis (H)"
100,"20.0.2.0.10.2-Salici cinereae-Viburnenion opuli (H)"
101,"20.0.2.0.10.3-Humulo lupuli-Sambucenion nigrae (H)"
102,"20.0.2.0.11-Pruno spinosae-Rubion radulae (p)"
103,"20.0.2.0.11.2-Frangulo alni-Rubenion (p)"
104,"24-Erico carneae-Pinetea sylvestris (p)"
105,"24.0.4-Erico carneae-Pinetalia sylvestris (p)"
106,"24.0.4.0.1-Erico carneae-Pinion sylvestris (p)"
107,"24.0.4.0.1.2-Molinio arundinaceae-Pinenion sylvestris (p)"
108,"26-Festuco valesiacae-Brometea erecti (p)"
109,"26.0.2-Brometalia erecti (p)"
110,"26.0.2.0.3-Mesobromion erecti (p)"
111,"26.0.2.0.3.4-Teucrio montani-Mesobromenion erecti (p)"
112,"27-Festuco-Seslerietea caeruleae (p)"
113,"27.0.1-Seslerietalia caeruleae (p)"
114,"27.0.1.0.4-Primulion intricatae (p)"
115,"28-Filipendulo ulmariae-Convolvuletea sepium (H)"
116,"28.0.1-Convolvuletalia sepium (H)"
117,"28.0.1.0.1-Convolvulion sepium (H)"
118,"28.0.1.0.2-Angelicion litoralis (H)"
119,"28.0.1.0.3-Dorycnion recti (H)"
120,"28.0.2-Petasito hybridi-Chaerophylletalia hirsuti (H)"
121,"28.0.2.0.1-Petasition officinalis (H)"
122,"28.0.3-Filipenduletalia ulmariae (H)"
123,"28.0.3.0.1-Thalictro flavi-Filipendulion ulmariae (H)"
124,"28.0.3.0.2-Filipendulo ulmariae-Petasition (H)"
125,"29-Galio aparines-Urticetea dioicae (p)"
126,"29.0.1-Galio aparines-Alliarietalia petiolatae (p)"
127,"29.0.1.0.1-Aegopodion podagrariae (p)"
128,"29.0.1.0.2-Geo urbani-Alliarion petiolatae (p)"
129,"29.0.2-Impatienti noli-tangere-Stachyetalia sylvaticae (H)"
130,"29.0.2.0.1-Impatienti noli-tangere-Stachyion sylvaticae (H)"
131,"30-Glycerio fluitantis-Nasturtietea officinalis (H)"
132,"30.0.1-Nasturtio officinalis-Glycerietalia fluitantis (H)"
133,"30.0.1.0.1-Glycerio fluitantis-Sparganion neglecti (H)"
134,"30.0.1.0.2-Apion nodiflori (H)"
135,"34-Isoeto durieui-Juncetea bufonii (H)"
136,"34.0.1-Isoetetalia durieui (H)"
137,"34.0.1.0.1-Isoetion durieui (H)"
138,"34.0.1.0.2-Cicendion filiformis (H)"
139,"34.0.2-Elatino triandrae-Cyperetalia fusci (H)"
140,"34.0.2.0.1-Helochloion schoenoidis (H)"
141,"34.0.2.0.2-Lythrion tribracteati (H)"
142,"34.0.2.0.3-Elatino triandrae-Eleocharition ovatae (H)"
143,"34.0.3-Nanocyperetalia flavescentis (H)"
144,"34.0.3.0.1-Radiolion linoidis (H)"
145,"34.0.3.0.2-Nanocyperion flavescentis (H)"
146,"35-Juncetea maritimi (H)"
147,"35.0.1-Juncetalia maritimi (H)"
148,"35.0.1.0.1-Juncion maritimi (H)"
149,"35.0.1.0.1.1-Puccinellienion festuciformis (H)"
150,"35.0.1.0.1.2-Juncenion maritimi (H)"
151,"35.0.1.0.1.3-Puccinellio festuciformis-Caricenion extensae (H)"
152,"35.0.1.0.2-Halo-Artemision coerulescentis (H)"
153,"35.0.1.0.3-Plantaginion crassifoliae (H)"
154,"38-Littorelletea uniflorae (H)"
155,"38.0.1-Littorelletalia uniflorae (H)"
156,"38.0.1.0.1-Littorellion uniflorae (H)"
157,"38.0.1.0.2-Lobelion dortmannae (H)"
158,"38.0.1.0.3-Elodo palustris-Sparganion (H)"
159,"38.0.1.0.4-Eleocharition acicularis (H)"
160,"39-Loiseleurio procumbentis-Vaccinietea microphylli (p)"
161,"39.0.1-Rhododendro ferruginei-Vaccinietalia microphylli (p)"
162,"39.0.1.0.3-Rhododendro ferruginei-Vaccinion myrtilli (p)"
163,"41-Melampyro pratensis-Holcetea mollis (p)"
164,"41.0.1-Melampyro pratensis-Holcetalia mollis (p)"
165,"41.0.1.0.1-Potentillo erectae-Holcion mollis (p)"
166,"41.0.1.0.2-Holco mollis-Pteridion aquilini (p)"
167,"42-Molinio caeruleae-Juncetea acutiflori (p)"
168,"42.0.1-Molinietalia caeruleae (H)"
169,"42.0.1.0.1-Calthion palustris (H)"
170,"42.0.1.0.2-Juncion acutiflori (H)"
171,"42.0.1.0.2.1-Caro verticillati-Juncenion acutiflori (H)"
172,"42.0.1.0.2.2-Anagallido tenellae-Juncenion acutiflori (H)"
173,"42.0.1.0.2.3-Serratulo seoanei-Molinienion caeruleae (H)"
174,"42.0.1.0.2.4-Polygono bistortae-Juncenion acutiflori (H)"
175,"42.0.1.0.2.5-Juncenion acutiflori (H)"
176,"42.0.1.0.3-Molinion caeruleae (H)"
177,"42.0.1.0.3.1-Allio angulosi-Molinienion caeruleae (H)"
178,"42.0.1.0.3.2-Carici davallianae-Molinienion caeruleae (H)"
179,"42.0.1.0.4-Deschampsio mediae-Molinion arundinaceae (H)"
180,"42.0.2-Holoschoenetalia vulgaris (p)"
181,"42.0.2.0.1-Molinio arundinaceae-Holoschoenion vulgaris (H)"
182,"42.0.2.0.2-Deschampsion mediae (p)"
183,"43-Montio fontanae-Cardaminetea amarae (H)"
184,"43.0.1-Cardamino amarae-Chrysosplenietalia alternifolii (H)"
185,"43.0.1.0.1-Cochlearion pyrenaicae (H)"
186,"43.0.1.0.2-Pellion endiviifoliae (H)"
187,"43.0.1.0.3-Riccardio pinguis-Eucladion verticillati (H)"
188,"43.0.1.0.4-Caricion remotae (H)"
189,"43.0.1.0.4.1-Caricenion remotae (H)"
190,"43.0.2-Montio fontanae-Cardaminetalia amarae (H)"
191,"43.0.2.0.1-Epilobio nutantis-Montion fontanae (H)"
192,"43.0.2.0.2-Cratoneurion commutati (H)"
193,"43.0.2.0.3-Cardamino amarae-Montion fontanae (H)"
194,"43.0.2.0.3.1-Cardamino amarae-Montienion fontanae (H)"
195,"43.0.2.0.4-Dermatocarpion rivulorum (H)"
196,"44-Mulgedio alpini-Aconitetea variegati (p)"
197,"44.0.1-Calamagrostietalia villosae (p)"
198,"44.0.1.0.2-Calamagrostion villosae (p)"
199,"44.0.2-Adenostyletalia alliariae (p)"
200,"44.0.2.0.1-Adenostylion alliariae (p)"
201,"44.0.2.0.2-Arunco dioici-Petasition albi (H)"
202,"44.0.2.0.3-Doronicion corsici (H)"
203,"45-Nardetea strictae (p)"
204,"45.0.1-Nardetalia strictae (p)"
205,"45.0.1.0.4-Carici arenariae-Festucion filiformis (p)"
206,"45.0.1.0.5-Nardo strictae-Juncion squarrosi (H)"
207,"46-Nerio oleandri-Tamaricetea africanae (H)"
208,"46.0.1-Tamaricetalia africanae (H)"
209,"46.0.1.0.1-Tamaricion africanae (H)"
210,"46.0.1.0.2-Rubo ulmifolii-Nerion oleandri (H)"
211,"46.0.1.0.3-Imperato cylindricae-Erianthion ravennae (H)"
212,"47-Oryzetea sativae (H)"
213,"47.0.1-Cypero difformis-Echinochloetalia oryzoidis (H)"
214,"47.0.1.0.1-Oryzo sativae-Echinochloion oryzoidis (H)"
215,"48-Oxycocco palustris-Sphagnetea magellanici (H)"
216,"48.0.1-Erico tetralicis-Sphagnetalia papillosi (H)"
217,"48.0.1.0.1-Oxycocco palustris-Ericion tetralicis (H)"
218,"48.0.1.0.2-Ericion tetralicis (H)"
219,"48.0.2-Sphagnetalia medii (H)"
220,"48.0.2.0.1-Sphagnion medii (H)"
221,"51-Phragmiti australis-Magnocaricetea elatae (H)"
222,"51.0.1-Phragmitetalia australis (H)"
223,"51.0.1.0.1-Phragmition communis (H)"
224,"51.0.1.0.2-Oenanthion aquaticae (H)"
225,"51.0.1.0.3-Phalaridion arundinaceae (H)"
226,"51.0.2-Magnocaricetalia elatae (H)"
227,"51.0.2.0.1-Magnocaricion elatae (H)"
228,"51.0.2.0.2-Caricion gracilis (H)"
229,"51.0.2.0.3-Carici pseudocyperi-Rumicion hydrolapathi (H)"
230,"51.0.3-Scirpetalia compacti (H)"
231,"51.0.3.0.1-Scirpion compacti (H)"
232,"51.0.3.0.2-Scirpion compacto-littoralis (H)"
233,"55-Potametea pectinati (p)"
234,"55.0.1-Potametalia pectinati (p)"
235,"55.0.1.0.3-Potamion polygonifolii (p)"
236,"55.0.1.0.4-Ranunculion aquatilis (p)"
237,"57-Querco roboris-Fagetea sylvaticae (p)"
238,"57.0.2-Quercetalia roboris (p)"
239,"57.0.2.0.3-Molinio caeruleae-Quercion roboris (H)"
240,"57.0.3-Fagetalia sylvaticae (p)"
241,"57.0.3.1-Carpino betuli-Fagenalia sylvaticae (p)"
242,"57.0.3.1.1-Fraxino excelsioris-Quercion roboris (p)"
243,"57.0.3.3-Fagenalia sylvaticae (p)"
244,"57.0.3.3.2-Tilio platyphylli-Acerion pseudoplatani (p)"
245,"57.0.3.3.4-Acerion pseudoplatani (p)"
246,"57.0.4-Populetalia albae (H)"
247,"57.0.4.1-Populenalia albae (H)"
248,"57.0.4.1.1-Populion albae (H)"
249,"57.0.4.1.1.1-Populenion albae (H)"
250,"57.0.4.1.1.2-Fraxino angustifoliae-Ulmenion minoris (H)"
251,"57.0.4.1.2-Osmundo regalis-Alnion glutinosae (H)"
252,"57.0.4.1.2.1-Hyperico hircini-Alnenion glutinosae (H)"
253,"57.0.4.1.2.2-Osmundo regalis-Alnenion glutinosae (H)"
254,"57.0.4.2-Alno glutinosae-Ulmenalia minoris (H)"
255,"57.0.4.2.1-Alnion incanae (H)"
256,"57.0.4.2.1.1-Alnenion glutinoso-incanae (H)"
257,"57.0.4.2.1.2-Ulmenion minoris (H)"
258,"59-Ruppietea maritimae (p)"
259,"59.0.1-Ruppietalia maritimae (p)"
260,"59.0.1.0.1-Ruppion maritimae (p)"
261,"59.0.1.0.2-Zannichellion pedicellatae (p)"
262,"59.0.1.0.3-Eleocharition parvulae (p)"
263,"60-Saginetea maritimae (p)"
264,"60.0.1-Saginetalia maritimae (p)"
265,"60.0.1.0.1-Saginion maritimae (p)"
266,"60.0.2-Frankenietalia pulverulentae (p)"
267,"60.0.2.0.1-Frankenion pulverulentae (H)"
268,"61-Salicetea herbaceae (p)"
269,"61.0.1-Arabidetalia caeruleae (p)"
270,"61.0.1.0.1-Arabidion caeruleae (p)"
271,"61.0.2-Salicetalia herbaceae (p)"
272,"61.0.2.0.1-Salicion herbaceae (p)"
273,"62-Salicetea purpureae (H)"
274,"62.0.1-Salicetalia purpureae (H)"
275,"62.0.1.0.1-Salicion triandrae (H)"
276,"62.0.1.0.2-Salicion incanae (H)"
277,"62.0.1.0.3-Salicion triandro-neotrichae (H)"
278,"62.0.2-Salicetalia albae (H)"
279,"62.0.2.0.1-Salicion albae (H)"
280,"62.0.2.0.2-Rubo caesii-Populion nigrae (H)"
281,"63-Salicornietea fruticosae (p)"
282,"63.0.1-Salicornietalia fruticosae (p)"
283,"63.0.1.0.1-Halimionion portulacoidis (H)"
284,"63.0.1.0.2-Salicornion fruticosae (p)"
285,"63.0.1.0.2.1-Sarcocornienion alpini (H)"
286,"63.0.1.0.2.2-Arthrocnemenion fruticosi (H)"
287,"63.0.1.0.2.3-Arthrocnemenion glauci (H)"
288,"63.0.1.0.2.4-Suaedenion verae (p)"
289,"63.0.2-Limonietalia (p)"
290,"63.0.2.0.1-Limonion confusi (p)"
291,"63.0.2.0.2-Limoniastrion monopetali (p)"
292,"64-Scheuchzerio palustris-Caricetea fuscae (H)"
293,"64.0.1-Scheuchzerietalia palustris (H)"
294,"64.0.1.0.1-Rhynchosporion albae (H)"
295,"64.0.1.0.2-Caricion lasiocarpae (H)"
296,"64.0.1.0.2.1-Junco acutiflori-Caricenion lasiocarpae (H)"
297,"64.0.1.0.2.2-Junco subnodulosi-Caricenion lasiocarpae (H)"
298,"64.0.1.0.2.3-Eriophorenion alpini (H)"
299,"64.0.1.0.2.4-Caricenion chordorrhizo-lasiocarpae (H)"
300,"64.0.2-Caricetalia fuscae (H)"
301,"64.0.2.0.1-Caricion fuscae (H)"
302,"64.0.2.0.2-Eriophorion scheuchzeri (H)"
303,"64.0.2.0.3-Bellidi bernardii-Bellion nivalis (H)"
304,"64.0.3-Caricetalia davallianae (H)"
305,"64.0.3.0.1-Caricion davallianae (H)"
306,"64.0.3.0.1.1-Schoenenion nigricantis (H)"
307,"64.0.3.0.1.2-Caricenion davallianae (H)"
308,"64.0.3.0.2-Hydrocotylo vulgaris-Schoenion nigricantis (H)"
309,"64.0.3.0.2.1-Caricenion pulchello-trinervis (H)"
310,"64.0.3.0.2.2-Hydrocotylo vulgaris-Schoenenion nigricantis (H)"
311,"64.0.3.0.3-Caricion incurvae (H)"
312,"67-Spartinetea glabrae (H)"
313,"67.0.1-Spartinetalia glabrae (H)"
314,"67.0.1.0.1-Spartinion anglicae (H)"
315,"70-Thero-Suaedetea splendentis (H)"
316,"70.0.1-Thero-Salicornietalia dolichostachyae (H)"
317,"70.0.1.0.1-Salicornion dolichostachyo-fragilis (H)"
318,"70.0.1.0.2-Salicornion europaeo-ramosissimae (H)"
319,"70.0.1.0.3-Salicornion patulae (H)"
320,"70.0.2-Thero-Suaedetalia splendentis (H)"
321,"70.0.2.0.2-Thero-Suaedion splendentis (H)"
322,"71-Thlaspietea rotundifolii (p)"
323,"71.0.3-Thlaspietalia rotundifolii (p)"
324,"71.0.3.0.4-Iberidion spathulatae (p)"
325,"71.0.8-Epilobietalia fleischeri (H)"
326,"71.0.8.0.1-Epilobion fleischeri (H)"
327,"71.0.8.0.2-Glaucion flavi (H)"
328,"73-Utricularietea intermedio-minoris (p)"
329,"73.0.1-Utricularietalia intermedio-minoris (p)"
330,"73.0.1.0.1-Sphagno cuspidati-Utricularion minoris (p)"
331,"73.0.1.0.2-Scorpidio scorpidioidis-Utricularion minoris (H)"
332,"74-Vaccinio myrtilli-Piceetea abietis (p)"
333,"74.0.2-Sphagno-Betuletalia pubescentis (H)"
334,"74.0.2.0.1-Betulion pubescentis (H)"
335,"74.0.3-Piceetalia excelsae (p)"
336,"74.0.3.0.1-Piceion excelsae (p)"
337,"74.0.3.0.1.3-Eu-Vaccinio myrtilli-Piceenion abietis (p)"
